Tsiaras_Milestone_Report
…
trigram_united <- trigram_filt %>%
        unite(trigram, first_word, second_word, third_word, sep = " ")

trigram_counts <- trigram_united %>% count(trigram, sort=TRUE)

print(trigram_counts)

## # A tibble: 4,600,036 x 2
##    trigram                    n
##    <chr>                  <int>
##  1 happy mothers day       1768
##  2 happy mother's day      1666
##  3 president barack obama  1481
##  4 cinco de mayo           1349
##  5 world war ii            1161
##  6 st louis county         1081
##  7 gov chris christie       923
##  8 st patrick's day         665
##  9 martin luther king       649
## 10 love love love           582
## # ... with 4,600,026 more rows
…
